-------------------------------------------------------------------------------
Test set: drishti.ui.automation.uiautomation.AppTest
-------------------------------------------------------------------------------
Tests run: 0, Failures: 0, Errors: 0, Skipped: 0, Time elapsed: 1.171 sec
